﻿Build started 9/20/2015 12:33:22 AM.
     1>Project "E:\Zitu\Works\VisualStudio\GraphicsOffline01\GraphicsOffline01\GraphicsOffline01.vcxproj" on node 2 (Build target(s)).
     1>ClCompile:
         C:\Program Files\Microsoft Visual Studio 12.0\VC\bin\CL.exe /c /ZI /nologo /W3 /WX- /sdl /Od /Oy- /D WIN32 /D _DEBUG /D _CONSOLE /D _LIB /D _UNICODE /D UNICODE /Gm /EHsc /RTC1 /MDd /GS /fp:precise /Zc:wchar_t /Zc:forScope /Fo"Debug\\" /Fd"Debug\vc120.pdb" /Gd /TP /analyze- /errorReport:prompt 1005046.cpp
         1005046.cpp
       Link:
         C:\Program Files\Microsoft Visual Studio 12.0\VC\bin\link.exe /ERRORREPORT:PROMPT /OUT:"E:\Zitu\Works\VisualStudio\GraphicsOffline01\Debug\GraphicsOffline01.exe" /INCREMENTAL /NOLOGO kernel32.lib user32.lib gdi32.lib winspool.lib comdlg32.lib advapi32.lib shell32.lib ole32.lib oleaut32.lib uuid.lib odbc32.lib odbccp32.lib /MANIFEST /MANIFESTUAC:"level='asInvoker' uiAccess='false'" /manifest:embed /DEBUG /PDB:"E:\Zitu\Works\VisualStudio\GraphicsOffline01\Debug\GraphicsOffline01.pdb" /SUBSYSTEM:CONSOLE /TLBID:1 /DYNAMICBASE /NXCOMPAT /IMPLIB:"E:\Zitu\Works\VisualStudio\GraphicsOffline01\Debug\GraphicsOffline01.lib" /MACHINE:X86 Debug\1005046.obj
         GraphicsOffline01.vcxproj -> E:\Zitu\Works\VisualStudio\GraphicsOffline01\Debug\GraphicsOffline01.exe
     1>Done Building Project "E:\Zitu\Works\VisualStudio\GraphicsOffline01\GraphicsOffline01\GraphicsOffline01.vcxproj" (Build target(s)).

Build succeeded.

Time Elapsed 00:00:00.75
